<?xml version="1.0" encoding="UTF-8" standalone="no"?>
<!-- Created with Inkscape (http://www.inkscape.org/) -->

<svg
   width="419.99954mm"
   height="596.00055mm"
   viewBox="0 0 419.99952 596.00055"
   version="1.1"
   id="svg5"
   xmlns:xlink="http://www.w3.org/1999/xlink"
   xmlns="http://www.w3.org/2000/svg"
   xmlns:svg="http://www.w3.org/2000/svg">
  <defs
     id="defs2">
    <pattern
       xlink:href="#pattern12640"
       id="pattern48734"
       patternTransform="translate(440.30899,1444.7431)" />
    <pattern
       xlink:href="#Wavy"
       id="pattern18879"
       patternTransform="translate(440.30899,1444.7431)" />
    <pattern
       xlink:href="#pattern12640"
       id="pattern12746"
       patternTransform="translate(440.30899,1444.7431)" />
    <pattern
       xlink:href="#Wavy"
       id="pattern12640" />
    <pattern
       patternUnits="userSpaceOnUse"
       width="30.066020"
       height="5.1805778"
       id="Wavy">
      <path
         style="fill:black;stroke:none;"
         d="M 7.597,0.061 C 5.079,-0.187 2.656,0.302 -0.01,1.788 L -0.01,3.061 C 2.773,1.431 5.173,1.052 7.472,1.280 C 9.770,1.508 11.969,2.361 14.253,3.218 C 18.820,4.931 23.804,6.676 30.066,3.061 L 30.062,1.788 C 23.622,5.497 19.246,3.770 14.691,2.061 C 12.413,1.207 10.115,0.311 7.597,0.061 z "
         id="path7833" />
    </pattern>
    <marker
       style="overflow:visible"
       id="StopL"
       refX="0"
       refY="0"
       orient="auto">
      <path
         transform="scale(0.8)"
         style="fill:none;fill-opacity:0.75;fill-rule:evenodd;stroke:context-stroke;stroke-width:1pt"
         d="M 0,5.65 V -5.65"
         id="path147579" />
    </marker>
    <marker
       style="overflow:visible"
       id="Arrow1Mend"
       refX="0"
       refY="0"
       orient="auto">
      <path
         transform="matrix(-0.4,0,0,-0.4,-4,0)"
         style="fill:context-stroke;fill-rule:evenodd;stroke:context-stroke;stroke-width:1pt"
         d="M 0,0 5,-5 -12.5,0 5,5 Z"
         id="path147419" />
    </marker>
    <marker
       style="overflow:visible"
       id="Arrow1Mstart"
       refX="0"
       refY="0"
       orient="auto">
      <path
         transform="matrix(0.4,0,0,0.4,4,0)"
         style="fill:context-stroke;fill-rule:evenodd;stroke:context-stroke;stroke-width:1pt"
         d="M 0,0 5,-5 -12.5,0 5,5 Z"
         id="path147416" />
    </marker>
    <marker
       style="overflow:visible"
       id="Arrow1Lend"
       refX="0"
       refY="0"
       orient="auto">
      <path
         transform="matrix(-0.8,0,0,-0.8,-10,0)"
         style="fill:context-stroke;fill-rule:evenodd;stroke:context-stroke;stroke-width:1pt"
         d="M 0,0 5,-5 -12.5,0 5,5 Z"
         id="path147413" />
    </marker>
    <marker
       style="overflow:visible"
       id="Arrow1Lstart"
       refX="0"
       refY="0"
       orient="auto">
      <path
         transform="matrix(0.8,0,0,0.8,10,0)"
         style="fill:context-stroke;fill-rule:evenodd;stroke:context-stroke;stroke-width:1pt"
         d="M 0,0 5,-5 -12.5,0 5,5 Z"
         id="path147410" />
    </marker>
    <marker
       style="overflow:visible"
       id="StopL-3"
       refX="0"
       refY="0"
       orient="auto">
      <path
         transform="scale(0.8)"
         style="fill:none;fill-opacity:0.75;fill-rule:evenodd;stroke:context-stroke;stroke-width:1pt"
         d="M 0,5.65 V -5.65"
         id="path147579-3" />
    </marker>
    <marker
       style="overflow:visible"
       id="marker152171"
       refX="0"
       refY="0"
       orient="auto">
      <path
         transform="scale(0.8)"
         style="fill:none;fill-opacity:0.75;fill-rule:evenodd;stroke:context-stroke;stroke-width:1pt"
         d="M 0,5.65 V -5.65"
         id="path152169" />
    </marker>
    <marker
       style="overflow:visible"
       id="StopL-5"
       refX="0"
       refY="0"
       orient="auto">
      <path
         transform="scale(0.8)"
         style="fill:none;fill-opacity:0.75;fill-rule:evenodd;stroke:context-stroke;stroke-width:1pt"
         d="M 0,5.65 V -5.65"
         id="path147579-9" />
    </marker>
    <marker
       style="overflow:visible"
       id="marker27783"
       refX="0"
       refY="0"
       orient="auto">
      <path
         transform="scale(0.8)"
         style="fill:none;fill-opacity:0.75;fill-rule:evenodd;stroke:context-stroke;stroke-width:1pt"
         d="M 0,5.65 V -5.65"
         id="path27781" />
    </marker>
    <marker
       style="overflow:visible"
       id="StopL-3-6"
       refX="0"
       refY="0"
       orient="auto">
      <path
         transform="scale(0.8)"
         style="fill:none;fill-opacity:0.75;fill-rule:evenodd;stroke:context-stroke;stroke-width:1pt"
         d="M 0,5.65 V -5.65"
         id="path147579-3-2" />
    </marker>
    <marker
       style="overflow:visible"
       id="marker27789"
       refX="0"
       refY="0"
       orient="auto">
      <path
         transform="scale(0.8)"
         style="fill:none;fill-opacity:0.75;fill-rule:evenodd;stroke:context-stroke;stroke-width:1pt"
         d="M 0,5.65 V -5.65"
         id="path27787" />
    </marker>
    <pattern
       patternUnits="userSpaceOnUse"
       width="30.066020"
       height="5.1805778"
       id="Wavy-8">
      <path
         style="fill:black;stroke:none;"
         d="M 7.597,0.061 C 5.079,-0.187 2.656,0.302 -0.01,1.788 L -0.01,3.061 C 2.773,1.431 5.173,1.052 7.472,1.280 C 9.770,1.508 11.969,2.361 14.253,3.218 C 18.820,4.931 23.804,6.676 30.066,3.061 L 30.062,1.788 C 23.622,5.497 19.246,3.770 14.691,2.061 C 12.413,1.207 10.115,0.311 7.597,0.061 z "
         id="path7833-6" />
    </pattern>
    <pattern
       xlink:href="#Wavy-8"
       id="pattern32696" />
    <marker
       style="overflow:visible"
       id="StopL-0"
       refX="0"
       refY="0"
       orient="auto">
      <path
         transform="scale(0.8)"
         style="fill:none;fill-opacity:0.75;fill-rule:evenodd;stroke:context-stroke;stroke-width:1pt"
         d="M 0,5.65 V -5.65"
         id="path147579-4" />
    </marker>
    <marker
       style="overflow:visible"
       id="marker12821"
       refX="0"
       refY="0"
       orient="auto">
      <path
         transform="scale(0.8)"
         style="fill:none;fill-opacity:0.75;fill-rule:evenodd;stroke:context-stroke;stroke-width:1pt"
         d="M 0,5.65 V -5.65"
         id="path12819" />
    </marker>
    <marker
       style="overflow:visible"
       id="marker12825"
       refX="0"
       refY="0"
       orient="auto">
      <path
         transform="scale(0.8)"
         style="fill:none;fill-opacity:0.75;fill-rule:evenodd;stroke:context-stroke;stroke-width:1pt"
         d="M 0,5.65 V -5.65"
         id="path12823" />
    </marker>
    <marker
       style="overflow:visible"
       id="marker12829"
       refX="0"
       refY="0"
       orient="auto">
      <path
         transform="scale(0.8)"
         style="fill:none;fill-opacity:0.75;fill-rule:evenodd;stroke:context-stroke;stroke-width:1pt"
         d="M 0,5.65 V -5.65"
         id="path12827" />
    </marker>
    <marker
       style="overflow:visible"
       id="marker12833"
       refX="0"
       refY="0"
       orient="auto">
      <path
         transform="scale(0.8)"
         style="fill:none;fill-opacity:0.75;fill-rule:evenodd;stroke:context-stroke;stroke-width:1pt"
         d="M 0,5.65 V -5.65"
         id="path12831" />
    </marker>
    <marker
       style="overflow:visible"
       id="marker12837"
       refX="0"
       refY="0"
       orient="auto">
      <path
         transform="scale(0.8)"
         style="fill:none;fill-opacity:0.75;fill-rule:evenodd;stroke:context-stroke;stroke-width:1pt"
         d="M 0,5.65 V -5.65"
         id="path12835" />
    </marker>
    <marker
       style="overflow:visible"
       id="StopL-1"
       refX="0"
       refY="0"
       orient="auto">
      <path
         transform="scale(0.8)"
         style="fill:none;fill-opacity:0.75;fill-rule:evenodd;stroke:context-stroke;stroke-width:1pt"
         d="M 0,5.65 V -5.65"
         id="path147579-5" />
    </marker>
    <marker
       style="overflow:visible"
       id="marker73913"
       refX="0"
       refY="0"
       orient="auto">
      <path
         transform="scale(0.8)"
         style="fill:none;fill-opacity:0.75;fill-rule:evenodd;stroke:context-stroke;stroke-width:1pt"
         d="M 0,5.65 V -5.65"
         id="path73911" />
    </marker>
    <marker
       style="overflow:visible"
       id="StopL-4"
       refX="0"
       refY="0"
       orient="auto">
      <path
         transform="scale(0.8)"
         style="fill:none;fill-opacity:0.75;fill-rule:evenodd;stroke:context-stroke;stroke-width:1pt"
         d="M 0,5.65 V -5.65"
         id="path147579-2" />
    </marker>
    <marker
       style="overflow:visible"
       id="marker76679"
       refX="0"
       refY="0"
       orient="auto">
      <path
         transform="scale(0.8)"
         style="fill:none;fill-opacity:0.75;fill-rule:evenodd;stroke:context-stroke;stroke-width:1pt"
         d="M 0,5.65 V -5.65"
         id="path76677" />
    </marker>
    <marker
       style="overflow:visible"
       id="StopL-4-1"
       refX="0"
       refY="0"
       orient="auto">
      <path
         transform="scale(0.8)"
         style="fill:none;fill-opacity:0.75;fill-rule:evenodd;stroke:context-stroke;stroke-width:1pt"
         d="M 0,5.65 V -5.65"
         id="path147579-2-9" />
    </marker>
    <marker
       style="overflow:visible"
       id="marker76860"
       refX="0"
       refY="0"
       orient="auto">
      <path
         transform="scale(0.8)"
         style="fill:none;fill-opacity:0.75;fill-rule:evenodd;stroke:context-stroke;stroke-width:1pt"
         d="M 0,5.65 V -5.65"
         id="path76858" />
    </marker>
    <pattern
       patternUnits="userSpaceOnUse"
       width="30.066020"
       height="5.1805778"
       id="Wavy-6">
      <path
         style="fill:black;stroke:none;"
         d="M 7.597,0.061 C 5.079,-0.187 2.656,0.302 -0.01,1.788 L -0.01,3.061 C 2.773,1.431 5.173,1.052 7.472,1.280 C 9.770,1.508 11.969,2.361 14.253,3.218 C 18.820,4.931 23.804,6.676 30.066,3.061 L 30.062,1.788 C 23.622,5.497 19.246,3.770 14.691,2.061 C 12.413,1.207 10.115,0.311 7.597,0.061 z "
         id="path7833-1" />
    </pattern>
    <pattern
       xlink:href="#Wavy-6"
       id="pattern4366" />
    <pattern
       xlink:href="#Wavy-6-0"
       id="pattern18879-5"
       patternTransform="translate(-72.118912,1508.4719)" />
    <pattern
       patternUnits="userSpaceOnUse"
       width="30.066020"
       height="5.1805778"
       id="Wavy-6-0">
      <path
         style="fill:black;stroke:none;"
         d="M 7.597,0.061 C 5.079,-0.187 2.656,0.302 -0.01,1.788 L -0.01,3.061 C 2.773,1.431 5.173,1.052 7.472,1.280 C 9.770,1.508 11.969,2.361 14.253,3.218 C 18.820,4.931 23.804,6.676 30.066,3.061 L 30.062,1.788 C 23.622,5.497 19.246,3.770 14.691,2.061 C 12.413,1.207 10.115,0.311 7.597,0.061 z "
         id="path7833-1-2" />
    </pattern>
    <pattern
       xlink:href="#pattern12640-5"
       id="pattern48734-1"
       patternTransform="translate(-72.118912,1508.4719)" />
    <pattern
       xlink:href="#Wavy-6-0"
       id="pattern12640-5" />
    <pattern
       xlink:href="#pattern12640-5"
       id="pattern12746-9"
       patternTransform="translate(-72.118912,1508.4719)" />
    <pattern
       xlink:href="#Wavy-6-0"
       id="pattern5440" />
  </defs>
  <g
     id="layer6"
     style="display:inline"
     transform="translate(-294.168,-422.64804)">
    <g
       id="layer4"
       style="display:none">
      <g
         id="layer16"
         style="display:inline">
        <text
           xml:space="preserve"
           style="font-size:13.5296px;line-height:1.25;font-family:sans-serif;fill:#000000;stroke-width:0.2114"
           x="375.2529"
           y="-519.88568"
           id="text42476-2"><tspan
             id="tspan42474-8"
             style="fill:#000000;stroke-width:0.2114"
             x="375.2529"
             y="-519.88568">10</tspan></text>
        <g
           id="g46836">
          <circle
             style="fill:none;stroke:#000000;stroke-width:0.798993;stroke-linejoin:round;stroke-miterlimit:4;stroke-dasharray:none"
             id="path92926-39-8"
             cx="329.64532"
             cy="-804.74585"
             r="3.3698413" />
          <path
             style="fill:none;stroke:#000000;stroke-width:0.798993;stroke-linecap:butt;stroke-linejoin:miter;stroke-miterlimit:4;stroke-dasharray:none;stroke-opacity:1"
             d="m 323.28258,-804.74585 h 12.72564"
             id="path93203-1-0" />
          <path
             style="fill:none;stroke:#000000;stroke-width:0.798993;stroke-linecap:butt;stroke-linejoin:miter;stroke-miterlimit:4;stroke-dasharray:none;stroke-opacity:1"
             d="m 329.64536,-811.51978 v 13.54787"
             id="path93205-96-8" />
          <text
             xml:space="preserve"
             style="font-size:8.87066px;line-height:1.25;font-family:sans-serif;display:inline;stroke-width:0.2114"
             x="333.60883"
             y="-805.37921"
             id="text94918-93-6"><tspan
               id="tspan94916-38-9"
               style="stroke-width:0.2114"
               x="333.60883"
               y="-805.37921">A</tspan></text>
        </g>
        <g
           id="g46849">
          <circle
             style="fill:none;stroke:#000000;stroke-width:0.798993;stroke-linejoin:round;stroke-miterlimit:4;stroke-dasharray:none"
             id="path92926-6-5-6-7"
             cx="179.56001"
             cy="-803.7879"
             r="3.3698413" />
          <path
             style="fill:none;stroke:#000000;stroke-width:0.798993;stroke-linecap:butt;stroke-linejoin:miter;stroke-miterlimit:4;stroke-dasharray:none;stroke-opacity:1"
             d="m 173.19728,-803.78792 h 12.72564"
             id="path93203-6-4-9-4" />
          <path
             style="fill:none;stroke:#000000;stroke-width:0.798993;stroke-linecap:butt;stroke-linejoin:miter;stroke-miterlimit:4;stroke-dasharray:none;stroke-opacity:1"
             d="m 179.56006,-810.56185 v 13.54787"
             id="path93205-4-4-4-3" />
          <text
             xml:space="preserve"
             style="font-size:8.87066px;line-height:1.25;font-family:sans-serif;display:inline;stroke-width:0.2114"
             x="183.52335"
             y="-804.42126"
             id="text94918-00-9-22-7"><tspan
               id="tspan94916-4-9-6-1"
               style="stroke-width:0.2114"
               x="183.52335"
               y="-804.42126">B</tspan></text>
        </g>
        <path
           style="fill:none;stroke:#000000;stroke-width:0.798993;stroke-linecap:butt;stroke-linejoin:miter;stroke-miterlimit:4;stroke-dasharray:none;stroke-opacity:1"
           d="m 165.81436,-832.55215 v 13.54787"
           id="path93205-4-4-90-0-0-2" />
        <g
           id="g46842">
          <circle
             style="fill:none;stroke:#000000;stroke-width:0.798993;stroke-linejoin:round;stroke-miterlimit:4;stroke-dasharray:none"
             id="path92926-6-5-06-77-0-6"
             cx="165.81432"
             cy="-825.7782"
             r="3.3698413" />
          <path
             style="fill:none;stroke:#000000;stroke-width:0.798993;stroke-linecap:butt;stroke-linejoin:miter;stroke-miterlimit:4;stroke-dasharray:none;stroke-opacity:1"
             d="m 159.45158,-825.77822 h 12.72564"
             id="path93203-6-4-87-4-1-4" />
          <text
             xml:space="preserve"
             style="font-size:8.87066px;line-height:1.25;font-family:sans-serif;display:inline;stroke-width:0.2114"
             x="169.77765"
             y="-826.41156"
             id="text94918-00-9-33-64-1-0"><tspan
               id="tspan94916-4-9-37-7-3-2"
               style="stroke-width:0.2114"
               x="169.77765"
               y="-826.41156">C</tspan></text>
        </g>
        <g
           id="g46856">
          <circle
             style="fill:none;stroke:#000000;stroke-width:0.798993;stroke-linejoin:round;stroke-miterlimit:4;stroke-dasharray:none"
             id="path92926-6-5-06-77-6-7"
             cx="165.88571"
             cy="-767.30573"
             r="3.3698413" />
          <path
             style="fill:none;stroke:#000000;stroke-width:0.798993;stroke-linecap:butt;stroke-linejoin:miter;stroke-miterlimit:4;stroke-dasharray:none;stroke-opacity:1"
             d="m 159.52298,-767.30572 h 12.72564"
             id="path93203-6-4-87-4-4-4" />
          <path
             style="fill:none;stroke:#000000;stroke-width:0.798993;stroke-linecap:butt;stroke-linejoin:miter;stroke-miterlimit:4;stroke-dasharray:none;stroke-opacity:1"
             d="m 165.88576,-774.07965 v 13.54787"
             id="path93205-4-4-90-0-5-6" />
          <text
             xml:space="preserve"
             style="font-size:8.87066px;line-height:1.25;font-family:sans-serif;display:inline;stroke-width:0.2114"
             x="169.84904"
             y="-767.93909"
             id="text94918-00-9-33-64-2-4"><tspan
               id="tspan94916-4-9-37-7-02-9"
               style="stroke-width:0.2114"
               x="169.84904"
               y="-767.93909">C</tspan></text>
        </g>
        <g
           id="g59349">
          <path
             style="fill:none;stroke:#000000;stroke-width:0.798993;stroke-linecap:butt;stroke-linejoin:miter;stroke-miterlimit:4;stroke-dasharray:none;stroke-opacity:1"
             d="m 122.72876,-809.69815 v 13.54787"
             id="path93205-4-4-90-0-4-3" />
          <g
             id="g46862"
             transform="translate(0,0.52916667)">
            <circle
               style="fill:none;stroke:#000000;stroke-width:0.798993;stroke-linejoin:round;stroke-miterlimit:4;stroke-dasharray:none"
               id="path92926-6-5-06-77-9-8"
               cx="122.72872"
               cy="-802.92419"
               r="3.3698413" />
            <path
               style="fill:none;stroke:#000000;stroke-width:0.798993;stroke-linecap:butt;stroke-linejoin:miter;stroke-miterlimit:4;stroke-dasharray:none;stroke-opacity:1"
               d="m 116.36598,-802.92422 h 12.72564"
               id="path93203-6-4-87-4-9-1" />
            <text
               xml:space="preserve"
               style="font-size:8.87066px;line-height:1.25;font-family:sans-serif;display:inline;stroke-width:0.2114"
               x="126.69205"
               y="-803.55756"
               id="text94918-00-9-33-64-5-8"><tspan
                 id="tspan94916-4-9-37-7-1-9"
                 style="stroke-width:0.2114"
                 x="126.69205"
                 y="-803.55756">D</tspan></text>
          </g>
          <g
             id="g46867"
             transform="translate(0,0.52916663)">
            <circle
               style="fill:none;stroke:#000000;stroke-width:0.798993;stroke-linejoin:round;stroke-miterlimit:4;stroke-dasharray:none"
               id="path92926-6-5-06-77-9-7-5"
               cx="122.75792"
               cy="-791.83032"
               r="3.3698413" />
            <path
               style="fill:none;stroke:#000000;stroke-width:0.798993;stroke-linecap:butt;stroke-linejoin:miter;stroke-miterlimit:4;stroke-dasharray:none;stroke-opacity:1"
               d="m 116.39518,-791.83032 h 12.72564"
               id="path93203-6-4-87-4-9-8-1" />
            <path
               style="fill:none;stroke:#000000;stroke-width:0.798993;stroke-linecap:butt;stroke-linejoin:miter;stroke-miterlimit:4;stroke-dasharray:none;stroke-opacity:1"
               d="m 122.75796,-798.60425 v 13.54787"
               id="path93205-4-4-90-0-4-8-0" />
          </g>
        </g>
        <path
           id="path5593-1"
           style="display:inline;fill:none;fill-opacity:1;stroke:#000080;stroke-width:0.99146;stroke-linejoin:round;stroke-miterlimit:4;stroke-dasharray:2.97437, 2.97437;stroke-dashoffset:0;stroke-opacity:1"
           d="m 142.5045,-836.61665 c -7.67317,26.84322 -7.67141,52.11156 -1.20256,80.96813 27.0386,-17.28862 48.41702,-37.92264 85.82659,-40.33886 -40.6585,-9.98669 -57.16533,-20.94315 -84.62403,-40.62927 z" />
        <g
           id="g10038"
           transform="translate(130.62377,106.55363)"
           style="display:inline">
          <path
             style="display:inline;fill:none;fill-opacity:1;stroke:#000000;stroke-width:0.798993;stroke-linejoin:round;stroke-miterlimit:4;stroke-dasharray:none;stroke-opacity:1"
             d="m 7.3475491,-798.86218 c 3.2308059,10.17653 7.2066729,20.99193 11.1816619,29.63032 h 12.179363 l 5.430034,1.7597 -2.236541,1.06002 0.496255,32.48009 7.673445,2.38388 -2.920238,1.05674 c 48.794715,73.02505 111.167351,111.82756 183.350661,111.82756 123.68964,1.6e-4 227.47007,-129.97116 227.47007,-287.01123 0,-157.04 -104.76734,-282.79 -228.45699,-282.7898 h 8e-5 c -78.29041,0.06 -138.458781,46.4312 -183.963644,113.6529 l 3.384452,1.3515 -7.86696,2.531 0.01758,32.2196 2.635158,1.076 -4.715574,1.5281 -13.660137,0.1458 c -4.175375,9.2031 -7.3602396,18.6421 -10.2436441,28.1388 30.0501911,3.7353 57.6048881,10.79184 81.1512781,23.18334 19.353031,13.33119 29.501921,32.81063 34.642561,55.63545 3.55088,18.61053 2.20146,35.72535 -0.15876,52.53152 -6.89155,31.54119 -20.74281,42.78214 -34.368826,54.68018 -27.007066,14.35702 -54.014214,18.69283 -81.0212819,22.92853 z"
             id="path9983-9" />
          <path
             style="display:inline;fill:none;fill-opacity:1;stroke:#000000;stroke-width:0.798993;stroke-linejoin:round;stroke-miterlimit:4;stroke-dasharray:none;stroke-opacity:1"
             d="m 5.8225119,-803.80131 c -1.0678536,-3.56055 -2.023289,-6.97848 -2.8316298,-10.1226 l -8.8873542,-14.42365 c -4.4853049,-19.64436 -7.7038069,-41.45406 -8.2661379,-66.20645 l -1.904958,0.009 c -0.434412,0 -0.783811,-0.35092 -0.784211,-0.78685 l -0.01358,-14.72942 c -3.99e-4,-0.43593 0.350199,-0.80683 0.784211,-0.78685 l 1.772086,0.0809 c 0.916604,-26.37067 3.266601,-45.72547 7.7501481,-66.0202 l 8.5337202,-13.51936 c 1.1952929,-4.09539 2.3680542,-8.20038 3.5734145,-12.30061 0,0 50.0456192,5.16529 72.7831892,19.51112 22.73757,14.34583 37.08875,36.36967 37.56439,76.29397 0.44712,37.53515 -11.86184,65.84993 -34.981807,81.23613 -23.008587,15.31205 -75.0914781,21.76512 -75.0914781,21.76512 z"
             id="path74788-84" />
        </g>
      </g>
    </g>
  </g>
</svg>
