<?xml version="1.0" encoding="UTF-8" standalone="no"?>
<!-- Created with Inkscape (http://www.inkscape.org/) -->

<svg
   width="419.99954mm"
   height="596.00055mm"
   viewBox="0 0 419.99952 596.00055"
   version="1.1"
   id="svg5"
   xmlns:xlink="http://www.w3.org/1999/xlink"
   xmlns="http://www.w3.org/2000/svg"
   xmlns:svg="http://www.w3.org/2000/svg">
  <defs
     id="defs2">
    <pattern
       xlink:href="#pattern12640"
       id="pattern48734"
       patternTransform="translate(440.30899,1444.7431)" />
    <pattern
       xlink:href="#Wavy"
       id="pattern18879"
       patternTransform="translate(440.30899,1444.7431)" />
    <pattern
       xlink:href="#pattern12640"
       id="pattern12746"
       patternTransform="translate(440.30899,1444.7431)" />
    <pattern
       xlink:href="#Wavy"
       id="pattern12640" />
    <pattern
       patternUnits="userSpaceOnUse"
       width="30.066020"
       height="5.1805778"
       id="Wavy">
      <path
         style="fill:black;stroke:none;"
         d="M 7.597,0.061 C 5.079,-0.187 2.656,0.302 -0.01,1.788 L -0.01,3.061 C 2.773,1.431 5.173,1.052 7.472,1.280 C 9.770,1.508 11.969,2.361 14.253,3.218 C 18.820,4.931 23.804,6.676 30.066,3.061 L 30.062,1.788 C 23.622,5.497 19.246,3.770 14.691,2.061 C 12.413,1.207 10.115,0.311 7.597,0.061 z "
         id="path7833" />
    </pattern>
    <marker
       style="overflow:visible"
       id="StopL"
       refX="0"
       refY="0"
       orient="auto">
      <path
         transform="scale(0.8)"
         style="fill:none;fill-opacity:0.75;fill-rule:evenodd;stroke:context-stroke;stroke-width:1pt"
         d="M 0,5.65 V -5.65"
         id="path147579" />
    </marker>
    <marker
       style="overflow:visible"
       id="Arrow1Mend"
       refX="0"
       refY="0"
       orient="auto">
      <path
         transform="matrix(-0.4,0,0,-0.4,-4,0)"
         style="fill:context-stroke;fill-rule:evenodd;stroke:context-stroke;stroke-width:1pt"
         d="M 0,0 5,-5 -12.5,0 5,5 Z"
         id="path147419" />
    </marker>
    <marker
       style="overflow:visible"
       id="Arrow1Mstart"
       refX="0"
       refY="0"
       orient="auto">
      <path
         transform="matrix(0.4,0,0,0.4,4,0)"
         style="fill:context-stroke;fill-rule:evenodd;stroke:context-stroke;stroke-width:1pt"
         d="M 0,0 5,-5 -12.5,0 5,5 Z"
         id="path147416" />
    </marker>
    <marker
       style="overflow:visible"
       id="Arrow1Lend"
       refX="0"
       refY="0"
       orient="auto">
      <path
         transform="matrix(-0.8,0,0,-0.8,-10,0)"
         style="fill:context-stroke;fill-rule:evenodd;stroke:context-stroke;stroke-width:1pt"
         d="M 0,0 5,-5 -12.5,0 5,5 Z"
         id="path147413" />
    </marker>
    <marker
       style="overflow:visible"
       id="Arrow1Lstart"
       refX="0"
       refY="0"
       orient="auto">
      <path
         transform="matrix(0.8,0,0,0.8,10,0)"
         style="fill:context-stroke;fill-rule:evenodd;stroke:context-stroke;stroke-width:1pt"
         d="M 0,0 5,-5 -12.5,0 5,5 Z"
         id="path147410" />
    </marker>
    <marker
       style="overflow:visible"
       id="StopL-3"
       refX="0"
       refY="0"
       orient="auto">
      <path
         transform="scale(0.8)"
         style="fill:none;fill-opacity:0.75;fill-rule:evenodd;stroke:context-stroke;stroke-width:1pt"
         d="M 0,5.65 V -5.65"
         id="path147579-3" />
    </marker>
    <marker
       style="overflow:visible"
       id="marker152171"
       refX="0"
       refY="0"
       orient="auto">
      <path
         transform="scale(0.8)"
         style="fill:none;fill-opacity:0.75;fill-rule:evenodd;stroke:context-stroke;stroke-width:1pt"
         d="M 0,5.65 V -5.65"
         id="path152169" />
    </marker>
    <marker
       style="overflow:visible"
       id="StopL-5"
       refX="0"
       refY="0"
       orient="auto">
      <path
         transform="scale(0.8)"
         style="fill:none;fill-opacity:0.75;fill-rule:evenodd;stroke:context-stroke;stroke-width:1pt"
         d="M 0,5.65 V -5.65"
         id="path147579-9" />
    </marker>
    <marker
       style="overflow:visible"
       id="marker27783"
       refX="0"
       refY="0"
       orient="auto">
      <path
         transform="scale(0.8)"
         style="fill:none;fill-opacity:0.75;fill-rule:evenodd;stroke:context-stroke;stroke-width:1pt"
         d="M 0,5.65 V -5.65"
         id="path27781" />
    </marker>
    <marker
       style="overflow:visible"
       id="StopL-3-6"
       refX="0"
       refY="0"
       orient="auto">
      <path
         transform="scale(0.8)"
         style="fill:none;fill-opacity:0.75;fill-rule:evenodd;stroke:context-stroke;stroke-width:1pt"
         d="M 0,5.65 V -5.65"
         id="path147579-3-2" />
    </marker>
    <marker
       style="overflow:visible"
       id="marker27789"
       refX="0"
       refY="0"
       orient="auto">
      <path
         transform="scale(0.8)"
         style="fill:none;fill-opacity:0.75;fill-rule:evenodd;stroke:context-stroke;stroke-width:1pt"
         d="M 0,5.65 V -5.65"
         id="path27787" />
    </marker>
    <pattern
       patternUnits="userSpaceOnUse"
       width="30.066020"
       height="5.1805778"
       id="Wavy-8">
      <path
         style="fill:black;stroke:none;"
         d="M 7.597,0.061 C 5.079,-0.187 2.656,0.302 -0.01,1.788 L -0.01,3.061 C 2.773,1.431 5.173,1.052 7.472,1.280 C 9.770,1.508 11.969,2.361 14.253,3.218 C 18.820,4.931 23.804,6.676 30.066,3.061 L 30.062,1.788 C 23.622,5.497 19.246,3.770 14.691,2.061 C 12.413,1.207 10.115,0.311 7.597,0.061 z "
         id="path7833-6" />
    </pattern>
    <pattern
       xlink:href="#Wavy-8"
       id="pattern32696" />
    <marker
       style="overflow:visible"
       id="StopL-0"
       refX="0"
       refY="0"
       orient="auto">
      <path
         transform="scale(0.8)"
         style="fill:none;fill-opacity:0.75;fill-rule:evenodd;stroke:context-stroke;stroke-width:1pt"
         d="M 0,5.65 V -5.65"
         id="path147579-4" />
    </marker>
    <marker
       style="overflow:visible"
       id="marker12821"
       refX="0"
       refY="0"
       orient="auto">
      <path
         transform="scale(0.8)"
         style="fill:none;fill-opacity:0.75;fill-rule:evenodd;stroke:context-stroke;stroke-width:1pt"
         d="M 0,5.65 V -5.65"
         id="path12819" />
    </marker>
    <marker
       style="overflow:visible"
       id="marker12825"
       refX="0"
       refY="0"
       orient="auto">
      <path
         transform="scale(0.8)"
         style="fill:none;fill-opacity:0.75;fill-rule:evenodd;stroke:context-stroke;stroke-width:1pt"
         d="M 0,5.65 V -5.65"
         id="path12823" />
    </marker>
    <marker
       style="overflow:visible"
       id="marker12829"
       refX="0"
       refY="0"
       orient="auto">
      <path
         transform="scale(0.8)"
         style="fill:none;fill-opacity:0.75;fill-rule:evenodd;stroke:context-stroke;stroke-width:1pt"
         d="M 0,5.65 V -5.65"
         id="path12827" />
    </marker>
    <marker
       style="overflow:visible"
       id="marker12833"
       refX="0"
       refY="0"
       orient="auto">
      <path
         transform="scale(0.8)"
         style="fill:none;fill-opacity:0.75;fill-rule:evenodd;stroke:context-stroke;stroke-width:1pt"
         d="M 0,5.65 V -5.65"
         id="path12831" />
    </marker>
    <marker
       style="overflow:visible"
       id="marker12837"
       refX="0"
       refY="0"
       orient="auto">
      <path
         transform="scale(0.8)"
         style="fill:none;fill-opacity:0.75;fill-rule:evenodd;stroke:context-stroke;stroke-width:1pt"
         d="M 0,5.65 V -5.65"
         id="path12835" />
    </marker>
    <marker
       style="overflow:visible"
       id="StopL-1"
       refX="0"
       refY="0"
       orient="auto">
      <path
         transform="scale(0.8)"
         style="fill:none;fill-opacity:0.75;fill-rule:evenodd;stroke:context-stroke;stroke-width:1pt"
         d="M 0,5.65 V -5.65"
         id="path147579-5" />
    </marker>
    <marker
       style="overflow:visible"
       id="marker73913"
       refX="0"
       refY="0"
       orient="auto">
      <path
         transform="scale(0.8)"
         style="fill:none;fill-opacity:0.75;fill-rule:evenodd;stroke:context-stroke;stroke-width:1pt"
         d="M 0,5.65 V -5.65"
         id="path73911" />
    </marker>
    <marker
       style="overflow:visible"
       id="StopL-4"
       refX="0"
       refY="0"
       orient="auto">
      <path
         transform="scale(0.8)"
         style="fill:none;fill-opacity:0.75;fill-rule:evenodd;stroke:context-stroke;stroke-width:1pt"
         d="M 0,5.65 V -5.65"
         id="path147579-2" />
    </marker>
    <marker
       style="overflow:visible"
       id="marker76679"
       refX="0"
       refY="0"
       orient="auto">
      <path
         transform="scale(0.8)"
         style="fill:none;fill-opacity:0.75;fill-rule:evenodd;stroke:context-stroke;stroke-width:1pt"
         d="M 0,5.65 V -5.65"
         id="path76677" />
    </marker>
    <marker
       style="overflow:visible"
       id="StopL-4-1"
       refX="0"
       refY="0"
       orient="auto">
      <path
         transform="scale(0.8)"
         style="fill:none;fill-opacity:0.75;fill-rule:evenodd;stroke:context-stroke;stroke-width:1pt"
         d="M 0,5.65 V -5.65"
         id="path147579-2-9" />
    </marker>
    <marker
       style="overflow:visible"
       id="marker76860"
       refX="0"
       refY="0"
       orient="auto">
      <path
         transform="scale(0.8)"
         style="fill:none;fill-opacity:0.75;fill-rule:evenodd;stroke:context-stroke;stroke-width:1pt"
         d="M 0,5.65 V -5.65"
         id="path76858" />
    </marker>
    <pattern
       patternUnits="userSpaceOnUse"
       width="30.066020"
       height="5.1805778"
       id="Wavy-6">
      <path
         style="fill:black;stroke:none;"
         d="M 7.597,0.061 C 5.079,-0.187 2.656,0.302 -0.01,1.788 L -0.01,3.061 C 2.773,1.431 5.173,1.052 7.472,1.280 C 9.770,1.508 11.969,2.361 14.253,3.218 C 18.820,4.931 23.804,6.676 30.066,3.061 L 30.062,1.788 C 23.622,5.497 19.246,3.770 14.691,2.061 C 12.413,1.207 10.115,0.311 7.597,0.061 z "
         id="path7833-1" />
    </pattern>
    <pattern
       xlink:href="#Wavy-6"
       id="pattern4366" />
    <pattern
       xlink:href="#Wavy-6-0"
       id="pattern18879-5"
       patternTransform="translate(-72.118912,1508.4719)" />
    <pattern
       patternUnits="userSpaceOnUse"
       width="30.066020"
       height="5.1805778"
       id="Wavy-6-0">
      <path
         style="fill:black;stroke:none;"
         d="M 7.597,0.061 C 5.079,-0.187 2.656,0.302 -0.01,1.788 L -0.01,3.061 C 2.773,1.431 5.173,1.052 7.472,1.280 C 9.770,1.508 11.969,2.361 14.253,3.218 C 18.820,4.931 23.804,6.676 30.066,3.061 L 30.062,1.788 C 23.622,5.497 19.246,3.770 14.691,2.061 C 12.413,1.207 10.115,0.311 7.597,0.061 z "
         id="path7833-1-2" />
    </pattern>
    <pattern
       xlink:href="#pattern12640-5"
       id="pattern48734-1"
       patternTransform="translate(-72.118912,1508.4719)" />
    <pattern
       xlink:href="#Wavy-6-0"
       id="pattern12640-5" />
    <pattern
       xlink:href="#pattern12640-5"
       id="pattern12746-9"
       patternTransform="translate(-72.118912,1508.4719)" />
    <pattern
       xlink:href="#Wavy-6-0"
       id="pattern5440" />
  </defs>
  <g
     id="layer6"
     style="display:inline"
     transform="translate(-294.168,-422.64804)">
    <g
       id="layer42"
       transform="translate(-1843.8078,-1750.359)"
       style="display:none">
      <g
         id="layer45"
         style="display:inline"
         transform="translate(1843.8078,1750.359)">
        <path
           id="path47007-8"
           style="display:inline;fill:none;stroke:#000000;stroke-width:0.797734;stroke-linecap:butt;stroke-linejoin:miter;stroke-miterlimit:4;stroke-dasharray:none;stroke-opacity:1"
           d="m 157.23542,-798.3996 c 0,-6.96897 0.68194,-7.85273 2.21824,-12.90676 0.15509,-7.91275 3.37151,-19.33482 10.68549,-24.53123 -26.54158,-23.62046 -70.779879,-26.49707 -108.092114,-26.22997 l -76.692662,0.12624 0.122326,64.25666" />
        <use
           x="0"
           y="0"
           xlink:href="#path47007-8"
           id="use47722-2"
           transform="matrix(1,0,0,-1,-0.00824121,-1596.5767)"
           width="100%"
           height="100%" />
        <text
           xml:space="preserve"
           style="font-size:13.5296px;line-height:1.25;font-family:sans-serif;stroke-width:0.2114"
           x="101.88994"
           y="-752.69733"
           id="text68400-9"><tspan
             id="tspan68398-6"
             style="stroke-width:0.2114"
             x="101.88994"
             y="-752.69733">37</tspan></text>
        <g
           id="g49720"
           transform="translate(-2.1128,0.81406667)">
          <circle
             style="fill:none;stroke:#000000;stroke-width:0.798993;stroke-linejoin:round;stroke-miterlimit:4;stroke-dasharray:none"
             id="path92926-6-5-06-77-9-76-8-86-3"
             cx="124.84152"
             cy="-803.20911"
             r="3.3698413" />
          <path
             style="fill:none;stroke:#000000;stroke-width:0.798993;stroke-linecap:butt;stroke-linejoin:miter;stroke-miterlimit:4;stroke-dasharray:none;stroke-opacity:1"
             d="m 118.47878,-803.20912 h 12.72564"
             id="path93203-6-4-87-4-9-0-4-0-7" />
          <path
             style="fill:none;stroke:#000000;stroke-width:0.798993;stroke-linecap:butt;stroke-linejoin:miter;stroke-miterlimit:4;stroke-dasharray:none;stroke-opacity:1"
             d="m 124.84156,-809.98305 v 13.54787"
             id="path93205-4-4-90-0-4-9-37-336-8" />
          <text
             xml:space="preserve"
             style="font-size:8.87066px;line-height:1.25;font-family:sans-serif;display:inline;stroke-width:0.2114"
             x="128.80486"
             y="-803.84247"
             id="text94918-00-9-33-64-5-7-1-18-2"><tspan
               id="tspan94916-4-9-37-7-1-5-3-70-8"
               style="stroke-width:0.2114"
               x="128.80486"
               y="-803.84247">D</tspan></text>
        </g>
        <g
           id="g49725"
           transform="translate(-2.1013,1.1267666)">
          <circle
             style="fill:none;stroke:#000000;stroke-width:0.798993;stroke-linejoin:round;stroke-miterlimit:4;stroke-dasharray:none"
             id="path92926-6-5-06-77-9-7-8-9-00-6"
             cx="124.85922"
             cy="-792.42792"
             r="3.3698413" />
          <path
             style="fill:none;stroke:#000000;stroke-width:0.798993;stroke-linecap:butt;stroke-linejoin:miter;stroke-miterlimit:4;stroke-dasharray:none;stroke-opacity:1"
             d="m 118.49648,-792.42792 h 12.72564"
             id="path93203-6-4-87-4-9-8-5-7-4-0" />
          <path
             style="fill:none;stroke:#000000;stroke-width:0.798993;stroke-linecap:butt;stroke-linejoin:miter;stroke-miterlimit:4;stroke-dasharray:none;stroke-opacity:1"
             d="m 124.85926,-799.20185 v 13.54787"
             id="path93205-4-4-90-0-4-8-3-9-54-4" />
        </g>
        <g
           id="g63516"
           transform="translate(-0.0360907,-0.25694663)">
          <g
             id="g49732">
            <circle
               style="fill:none;stroke:#000000;stroke-width:0.798993;stroke-linejoin:round;stroke-miterlimit:4;stroke-dasharray:none"
               id="path92926-6-5-06-77-9-76-8-37-7-3-50-2"
               cx="83.940819"
               cy="-803.22858"
               r="3.3698413" />
            <path
               style="fill:none;stroke:#000000;stroke-width:0.798993;stroke-linecap:butt;stroke-linejoin:miter;stroke-miterlimit:4;stroke-dasharray:none;stroke-opacity:1"
               d="M 77.578081,-803.22862 H 90.303716"
               id="path93203-6-4-87-4-9-0-4-82-3-79-41-2" />
            <path
               style="fill:none;stroke:#000000;stroke-width:0.798993;stroke-linecap:butt;stroke-linejoin:miter;stroke-miterlimit:4;stroke-dasharray:none;stroke-opacity:1"
               d="m 83.940858,-810.00255 v 13.54787"
               id="path93205-4-4-90-0-4-9-37-10-1-4-7-2" />
            <text
               xml:space="preserve"
               style="font-size:8.87066px;line-height:1.25;font-family:sans-serif;display:inline;stroke-width:0.2114"
               x="87.904167"
               y="-803.86182"
               id="text94918-00-9-33-64-5-7-1-58-0-9-93-4"><tspan
                 id="tspan94916-4-9-37-7-1-5-3-55-0-9-6-6"
                 style="stroke-width:0.2114"
                 x="87.904167"
                 y="-803.86182">F</tspan></text>
          </g>
          <g
             id="g49737">
            <circle
               style="fill:none;stroke:#000000;stroke-width:0.798993;stroke-linejoin:round;stroke-miterlimit:4;stroke-dasharray:none"
               id="path92926-6-5-06-77-9-7-8-9-23-3-2-25-3"
               cx="83.958519"
               cy="-792.44733"
               r="3.3698413" />
            <path
               style="fill:none;stroke:#000000;stroke-width:0.798993;stroke-linecap:butt;stroke-linejoin:miter;stroke-miterlimit:4;stroke-dasharray:none;stroke-opacity:1"
               d="M 77.595781,-792.44732 H 90.321416"
               id="path93203-6-4-87-4-9-8-5-7-07-1-0-3-9" />
            <path
               style="fill:none;stroke:#000000;stroke-width:0.798993;stroke-linecap:butt;stroke-linejoin:miter;stroke-miterlimit:4;stroke-dasharray:none;stroke-opacity:1"
               d="m 83.958558,-799.22125 v 13.54787"
               id="path93205-4-4-90-0-4-8-3-9-776-8-6-9-8" />
          </g>
        </g>
        <g
           id="g49744"
           transform="translate(0.02259874,0.02454487)">
          <circle
             style="fill:none;stroke:#000000;stroke-width:0.798993;stroke-linejoin:round;stroke-miterlimit:4;stroke-dasharray:none"
             id="path92926-6-5-06-77-9-7-8-9-23-3-26-3-4-9"
             cx="32.354118"
             cy="-803.20709"
             r="3.3698413" />
          <path
             style="fill:none;stroke:#000000;stroke-width:0.798993;stroke-linecap:butt;stroke-linejoin:miter;stroke-miterlimit:4;stroke-dasharray:none;stroke-opacity:1"
             d="M 25.991381,-803.20712 H 38.717016"
             id="path93203-6-4-87-4-9-8-5-7-07-1-9-5-0-7" />
          <path
             style="fill:none;stroke:#000000;stroke-width:0.798993;stroke-linecap:butt;stroke-linejoin:miter;stroke-miterlimit:4;stroke-dasharray:none;stroke-opacity:1"
             d="m 32.354158,-809.98105 v 13.54787"
             id="path93205-4-4-90-0-4-8-3-9-776-8-1-5-0-2" />
          <text
             xml:space="preserve"
             style="font-size:8.87066px;line-height:1.25;font-family:sans-serif;display:inline;stroke-width:0.2114"
             x="33.80764"
             y="-806.76111"
             id="text94918-00-9-33-64-5-7-1-58-0-3-8-8-6"><tspan
               id="tspan94916-4-9-37-7-1-5-3-55-0-3-71-6-8"
               style="stroke-width:0.2114"
               x="33.80764"
               y="-806.76111">G</tspan></text>
        </g>
      </g>
    </g>
  </g>
</svg>
